Extract Values from an Excel File Based on Row and Column Identifiers — extract_values • rowcolr
…
clean_description
Logical. If TRUE, removes text matching
row_pattern and col_pattern from row and column labels (default: TRUE).

    Value

    A tibble containing extracted values, including sheet name, row,
column, and description.

    Examples

# Extract values using regex patterns
dataset <- extract_values(rowcolr_example("example.xlsx"), row_pattern = ".*_row$", col_pattern = ".*_col$")
dataset
#> # A tibble: 28 × 13
#>    filename    sheet   row   col row_label col_label description data_type error
#>    <chr>       <chr> <int> <int> <chr>     <chr>     <chr>       <chr>     <chr>
#>  1 example.xl… Bala…     2     4 name_row  value_col _           character NA   
#>  2 example.xl… Bala…     3     4 year_row  value_col _           numeric   NA   
#>  3 example.xl… Bala…     4     4 kvk_row   value_col _           numeric   NA   
#>  4 example.xl… Bala…     7    10 test1_row 2026_col  _           character NA   
#>  5 example.xl… Bala…     8    10 tes2_row  2026_col  _           character NA   
#>  6 example.xl… Bala…     9     4 int_fixe… 2025_col  _           numeric   NA   
#>  7 example.xl… Bala…    10     4 tang_fix… 2025_col  _           numeric   NA   
#>  8 example.xl… Bala…    11     4 fin_fixe… 2025_col  _           numeric   NA   
#>  9 example.xl… Bala…    13     4 tot_fixe… 2025_col  _           numeric   NA   
#> 10 example.xl… Bala…    16     4 stock_row 2025_col  _           numeric   NA   
#> # ℹ 18 more rows
#> # ℹ 4 more variables: logical <lgl>, numeric <dbl>, date <dttm>,
#> #   character <chr>
…
